<mxfile host="Electron" modified="2024-04-26T11:18:27.783Z" agent="Mozilla/5.0 (Macintosh; Intel Mac OS X 10_15_7) AppleWebKit/537.36 (KHTML, like Gecko) draw.io/24.2.5 Chrome/120.0.6099.109 Electron/28.1.0 Safari/537.36" etag="vKflfma8FZ435Le5-X5O" version="24.2.5" type="device">
  <diagram name="Page-1" id="FkdlLOApvW7UH2kGlTF4">
    <mxGraphModel dx="1194" dy="674" grid="1" gridSize="10" guides="1" tooltips="1" connect="1" arrows="1" fold="1" page="1" pageScale="1" pageWidth="827" pageHeight="1169" math="0" shadow="0">
      <root>
        <mxCell id="0" />
        <mxCell id="1" parent="0" />
        <mxCell id="Z6Vx-sTiSSNgrHJ5ACyb-1" value="" style="rounded=1;whiteSpace=wrap;html=1;arcSize=3;fillColor=#f5f5f5;fontColor=#333333;strokeColor=#666666;align=left;" vertex="1" parent="1">
          <mxGeometry x="140" y="110" width="600" height="490" as="geometry" />
        </mxCell>
        <mxCell id="Z6Vx-sTiSSNgrHJ5ACyb-2" value="Hydrogen Tank" style="rounded=1;whiteSpace=wrap;html=1;fillColor=#d5e8d4;strokeColor=#82b366;" vertex="1" parent="1">
          <mxGeometry x="220" y="160" width="120" height="80" as="geometry" />
        </mxCell>
        <mxCell id="Z6Vx-sTiSSNgrHJ5ACyb-3" style="edgeStyle=orthogonalEdgeStyle;rounded=0;orthogonalLoop=1;jettySize=auto;html=1;entryX=0;entryY=0.5;entryDx=0;entryDy=0;endArrow=classic;startSize=6;endSize=6;sourcePerimeterSpacing=0;targetPerimeterSpacing=0;endFill=1;startArrow=classic;startFill=1;" edge="1" parent="1" source="Z6Vx-sTiSSNgrHJ5ACyb-5" target="Z6Vx-sTiSSNgrHJ5ACyb-13">
          <mxGeometry relative="1" as="geometry" />
        </mxCell>
        <mxCell id="Z6Vx-sTiSSNgrHJ5ACyb-4" style="edgeStyle=orthogonalEdgeStyle;rounded=0;orthogonalLoop=1;jettySize=auto;html=1;endArrow=classic;startSize=6;endSize=6;sourcePerimeterSpacing=0;targetPerimeterSpacing=0;exitX=1;exitY=0.5;exitDx=0;exitDy=0;entryX=0.5;entryY=1;entryDx=0;entryDy=0;" edge="1" parent="1" source="Z6Vx-sTiSSNgrHJ5ACyb-30" target="Z6Vx-sTiSSNgrHJ5ACyb-8">
          <mxGeometry relative="1" as="geometry">
            <Array as="points">
              <mxPoint x="600" y="550" />
            </Array>
          </mxGeometry>
        </mxCell>
        <mxCell id="Z6Vx-sTiSSNgrHJ5ACyb-5" value="Fuel Cell" style="rounded=1;whiteSpace=wrap;html=1;fillColor=#d5e8d4;strokeColor=#82b366;" vertex="1" parent="1">
          <mxGeometry x="220" y="420" width="120" height="80" as="geometry" />
        </mxCell>
        <mxCell id="Z6Vx-sTiSSNgrHJ5ACyb-6" style="edgeStyle=orthogonalEdgeStyle;rounded=0;orthogonalLoop=1;jettySize=auto;html=1;" edge="1" parent="1" source="Z6Vx-sTiSSNgrHJ5ACyb-2" target="Z6Vx-sTiSSNgrHJ5ACyb-5">
          <mxGeometry relative="1" as="geometry" />
        </mxCell>
        <mxCell id="Z6Vx-sTiSSNgrHJ5ACyb-7" style="edgeStyle=none;curved=1;rounded=0;orthogonalLoop=1;jettySize=auto;html=1;entryX=0;entryY=0.5;entryDx=0;entryDy=0;endArrow=none;startSize=14;endSize=14;sourcePerimeterSpacing=0;targetPerimeterSpacing=0;endFill=0;" edge="1" parent="1" source="Z6Vx-sTiSSNgrHJ5ACyb-8" target="Z6Vx-sTiSSNgrHJ5ACyb-28">
          <mxGeometry relative="1" as="geometry" />
        </mxCell>
        <mxCell id="Z6Vx-sTiSSNgrHJ5ACyb-8" value="Battery" style="rounded=1;whiteSpace=wrap;html=1;fillColor=#dae8fc;strokeColor=#6c8ebf;" vertex="1" parent="1">
          <mxGeometry x="540" y="445" width="120" height="80" as="geometry" />
        </mxCell>
        <mxCell id="Z6Vx-sTiSSNgrHJ5ACyb-9" style="edgeStyle=orthogonalEdgeStyle;rounded=0;orthogonalLoop=1;jettySize=auto;html=1;" edge="1" parent="1" source="Z6Vx-sTiSSNgrHJ5ACyb-8" target="Z6Vx-sTiSSNgrHJ5ACyb-21">
          <mxGeometry relative="1" as="geometry" />
        </mxCell>
        <mxCell id="Z6Vx-sTiSSNgrHJ5ACyb-10" value="&lt;b&gt;Refuse Collection Vehicle&lt;/b&gt;" style="text;html=1;strokeColor=none;fillColor=none;align=center;verticalAlign=middle;whiteSpace=wrap;rounded=0;" vertex="1" parent="1">
          <mxGeometry x="140" y="120" width="600" height="40" as="geometry" />
        </mxCell>
        <mxCell id="Z6Vx-sTiSSNgrHJ5ACyb-11" style="edgeStyle=orthogonalEdgeStyle;rounded=0;orthogonalLoop=1;jettySize=auto;html=1;entryX=0;entryY=0.5;entryDx=0;entryDy=0;endArrow=classic;startSize=6;endSize=6;sourcePerimeterSpacing=0;targetPerimeterSpacing=0;startArrow=classic;startFill=1;" edge="1" parent="1" source="Z6Vx-sTiSSNgrHJ5ACyb-13" target="Z6Vx-sTiSSNgrHJ5ACyb-8">
          <mxGeometry relative="1" as="geometry" />
        </mxCell>
        <mxCell id="Z6Vx-sTiSSNgrHJ5ACyb-12" style="edgeStyle=orthogonalEdgeStyle;rounded=0;orthogonalLoop=1;jettySize=auto;html=1;endArrow=classic;startSize=6;endSize=6;sourcePerimeterSpacing=0;targetPerimeterSpacing=0;startArrow=classic;startFill=1;" edge="1" parent="1" source="Z6Vx-sTiSSNgrHJ5ACyb-13" target="Z6Vx-sTiSSNgrHJ5ACyb-21">
          <mxGeometry relative="1" as="geometry">
            <Array as="points">
              <mxPoint x="440" y="200" />
            </Array>
          </mxGeometry>
        </mxCell>
        <mxCell id="Z6Vx-sTiSSNgrHJ5ACyb-13" value="Energy Management System" style="shape=process;whiteSpace=wrap;html=1;backgroundOutline=1;" vertex="1" parent="1">
          <mxGeometry x="380" y="270" width="120" height="60" as="geometry" />
        </mxCell>
        <mxCell id="Z6Vx-sTiSSNgrHJ5ACyb-14" style="edgeStyle=none;curved=1;rounded=0;orthogonalLoop=1;jettySize=auto;html=1;entryX=0;entryY=0.5;entryDx=0;entryDy=0;endArrow=none;startSize=14;endSize=14;sourcePerimeterSpacing=0;targetPerimeterSpacing=0;endFill=0;" edge="1" parent="1" source="Z6Vx-sTiSSNgrHJ5ACyb-15" target="Z6Vx-sTiSSNgrHJ5ACyb-2">
          <mxGeometry relative="1" as="geometry" />
        </mxCell>
        <mxCell id="Z6Vx-sTiSSNgrHJ5ACyb-15" value="fuelMass" style="text;strokeColor=default;fillColor=default;html=1;align=center;verticalAlign=middle;whiteSpace=wrap;rounded=0;" vertex="1" parent="1">
          <mxGeometry x="110" y="185" width="70" height="30" as="geometry" />
        </mxCell>
        <mxCell id="Z6Vx-sTiSSNgrHJ5ACyb-16" style="edgeStyle=none;curved=1;rounded=0;orthogonalLoop=1;jettySize=auto;html=1;entryX=0;entryY=0.5;entryDx=0;entryDy=0;endArrow=none;startSize=14;endSize=14;sourcePerimeterSpacing=0;targetPerimeterSpacing=0;endFill=0;" edge="1" parent="1" source="Z6Vx-sTiSSNgrHJ5ACyb-17" target="Z6Vx-sTiSSNgrHJ5ACyb-5">
          <mxGeometry relative="1" as="geometry" />
        </mxCell>
        <mxCell id="Z6Vx-sTiSSNgrHJ5ACyb-17" value="fuelCellPowerDelivery" style="text;strokeColor=default;fillColor=default;html=1;align=center;verticalAlign=middle;whiteSpace=wrap;rounded=0;" vertex="1" parent="1">
          <mxGeometry x="40" y="445" width="140" height="30" as="geometry" />
        </mxCell>
        <mxCell id="Z6Vx-sTiSSNgrHJ5ACyb-18" style="edgeStyle=orthogonalEdgeStyle;rounded=0;orthogonalLoop=1;jettySize=auto;html=1;endArrow=none;startSize=14;endSize=14;sourcePerimeterSpacing=0;targetPerimeterSpacing=0;endFill=0;" edge="1" parent="1" source="Z6Vx-sTiSSNgrHJ5ACyb-19" target="Z6Vx-sTiSSNgrHJ5ACyb-22">
          <mxGeometry relative="1" as="geometry" />
        </mxCell>
        <mxCell id="Z6Vx-sTiSSNgrHJ5ACyb-19" value="motorPowerDraw" style="text;strokeColor=default;fillColor=default;html=1;align=center;verticalAlign=middle;whiteSpace=wrap;rounded=0;" vertex="1" parent="1">
          <mxGeometry x="700" y="290.00000000000006" width="110" height="30" as="geometry" />
        </mxCell>
        <mxCell id="Z6Vx-sTiSSNgrHJ5ACyb-20" value="" style="group" vertex="1" connectable="0" parent="1">
          <mxGeometry x="540" y="160" width="120" height="260" as="geometry" />
        </mxCell>
        <mxCell id="Z6Vx-sTiSSNgrHJ5ACyb-21" value="" style="rounded=1;whiteSpace=wrap;html=1;fillColor=#dae8fc;strokeColor=#6c8ebf;arcSize=7;" vertex="1" parent="Z6Vx-sTiSSNgrHJ5ACyb-20">
          <mxGeometry width="120" height="260.00000000000006" as="geometry" />
        </mxCell>
        <mxCell id="Z6Vx-sTiSSNgrHJ5ACyb-22" value="Motor" style="rounded=1;whiteSpace=wrap;html=1;fillColor=#dae8fc;strokeColor=#6c8ebf;arcSize=7;" vertex="1" parent="Z6Vx-sTiSSNgrHJ5ACyb-20">
          <mxGeometry x="10" y="120" width="100" height="130" as="geometry" />
        </mxCell>
        <mxCell id="Z6Vx-sTiSSNgrHJ5ACyb-23" value="Compactor" style="rounded=1;whiteSpace=wrap;html=1;fillColor=#dae8fc;strokeColor=#6c8ebf;arcSize=7;" vertex="1" parent="Z6Vx-sTiSSNgrHJ5ACyb-20">
          <mxGeometry x="10" y="15.3" width="100" height="94.7" as="geometry" />
        </mxCell>
        <mxCell id="Z6Vx-sTiSSNgrHJ5ACyb-24" value="compactorPowerDraw" style="text;strokeColor=default;fillColor=default;html=1;align=center;verticalAlign=middle;whiteSpace=wrap;rounded=0;" vertex="1" parent="1">
          <mxGeometry x="700" y="207.65" width="140" height="30" as="geometry" />
        </mxCell>
        <mxCell id="Z6Vx-sTiSSNgrHJ5ACyb-25" style="edgeStyle=none;curved=1;rounded=0;orthogonalLoop=1;jettySize=auto;html=1;entryX=0;entryY=0.5;entryDx=0;entryDy=0;endArrow=none;startSize=14;endSize=14;sourcePerimeterSpacing=0;targetPerimeterSpacing=0;endFill=0;" edge="1" parent="1" source="Z6Vx-sTiSSNgrHJ5ACyb-23" target="Z6Vx-sTiSSNgrHJ5ACyb-24">
          <mxGeometry relative="1" as="geometry" />
        </mxCell>
        <mxCell id="Z6Vx-sTiSSNgrHJ5ACyb-26" style="edgeStyle=orthogonalEdgeStyle;rounded=0;orthogonalLoop=1;jettySize=auto;html=1;endArrow=none;startSize=14;endSize=14;sourcePerimeterSpacing=0;targetPerimeterSpacing=0;entryX=1;entryY=0.338;entryDx=0;entryDy=0;entryPerimeter=0;endFill=0;" edge="1" parent="1" source="Z6Vx-sTiSSNgrHJ5ACyb-27" target="Z6Vx-sTiSSNgrHJ5ACyb-21">
          <mxGeometry relative="1" as="geometry" />
        </mxCell>
        <mxCell id="Z6Vx-sTiSSNgrHJ5ACyb-27" value="totalPowerDraw" style="text;strokeColor=default;fillColor=default;html=1;align=center;verticalAlign=middle;whiteSpace=wrap;rounded=0;" vertex="1" parent="1">
          <mxGeometry x="715" y="250" width="110" height="30" as="geometry" />
        </mxCell>
        <mxCell id="Z6Vx-sTiSSNgrHJ5ACyb-28" value="driveBatteryPowerDelivery" style="text;strokeColor=default;fillColor=default;html=1;align=center;verticalAlign=middle;whiteSpace=wrap;rounded=0;" vertex="1" parent="1">
          <mxGeometry x="700" y="470" width="160" height="30" as="geometry" />
        </mxCell>
        <mxCell id="Z6Vx-sTiSSNgrHJ5ACyb-29" value="" style="edgeStyle=orthogonalEdgeStyle;rounded=0;orthogonalLoop=1;jettySize=auto;html=1;endArrow=classic;startSize=6;endSize=6;sourcePerimeterSpacing=0;targetPerimeterSpacing=0;exitX=0.5;exitY=1;exitDx=0;exitDy=0;entryX=0;entryY=0.5;entryDx=0;entryDy=0;" edge="1" parent="1" source="Z6Vx-sTiSSNgrHJ5ACyb-5" target="Z6Vx-sTiSSNgrHJ5ACyb-30">
          <mxGeometry relative="1" as="geometry">
            <mxPoint x="280" y="440" as="sourcePoint" />
            <mxPoint x="600" y="440" as="targetPoint" />
            <Array as="points">
              <mxPoint x="280" y="550" />
            </Array>
          </mxGeometry>
        </mxCell>
        <mxCell id="Z6Vx-sTiSSNgrHJ5ACyb-30" value="totalFuelCellPowerDraw" style="text;strokeColor=default;fillColor=default;html=1;align=center;verticalAlign=middle;whiteSpace=wrap;rounded=0;" vertex="1" parent="1">
          <mxGeometry x="365" y="535" width="150" height="30" as="geometry" />
        </mxCell>
        <mxCell id="Z6Vx-sTiSSNgrHJ5ACyb-31" style="edgeStyle=none;curved=1;rounded=0;orthogonalLoop=1;jettySize=auto;html=1;entryX=0.25;entryY=0;entryDx=0;entryDy=0;endArrow=none;startSize=14;endSize=14;sourcePerimeterSpacing=0;targetPerimeterSpacing=0;endFill=0;" edge="1" parent="1" source="Z6Vx-sTiSSNgrHJ5ACyb-32" target="Z6Vx-sTiSSNgrHJ5ACyb-1">
          <mxGeometry relative="1" as="geometry" />
        </mxCell>
        <mxCell id="Z6Vx-sTiSSNgrHJ5ACyb-32" value="airTemp" style="text;strokeColor=default;fillColor=default;html=1;align=center;verticalAlign=middle;whiteSpace=wrap;rounded=0;" vertex="1" parent="1">
          <mxGeometry x="260" y="40" width="60" height="30" as="geometry" />
        </mxCell>
        <mxCell id="Z6Vx-sTiSSNgrHJ5ACyb-33" style="edgeStyle=none;curved=1;rounded=0;orthogonalLoop=1;jettySize=auto;html=1;entryX=0.75;entryY=0;entryDx=0;entryDy=0;endArrow=none;startSize=13;endSize=14;sourcePerimeterSpacing=0;targetPerimeterSpacing=0;endFill=0;" edge="1" parent="1" source="Z6Vx-sTiSSNgrHJ5ACyb-34" target="Z6Vx-sTiSSNgrHJ5ACyb-1">
          <mxGeometry relative="1" as="geometry" />
        </mxCell>
        <mxCell id="Z6Vx-sTiSSNgrHJ5ACyb-34" value="vehicleLoadTotal" style="text;strokeColor=default;fillColor=default;html=1;align=center;verticalAlign=middle;whiteSpace=wrap;rounded=0;" vertex="1" parent="1">
          <mxGeometry x="530" y="40" width="120" height="30" as="geometry" />
        </mxCell>
        <mxCell id="Z6Vx-sTiSSNgrHJ5ACyb-35" style="edgeStyle=orthogonalEdgeStyle;rounded=0;orthogonalLoop=1;jettySize=auto;html=1;entryX=1;entryY=0.5;entryDx=0;entryDy=0;endArrow=none;startSize=14;endSize=14;sourcePerimeterSpacing=0;targetPerimeterSpacing=0;endFill=0;" edge="1" parent="1" source="Z6Vx-sTiSSNgrHJ5ACyb-36" target="Z6Vx-sTiSSNgrHJ5ACyb-22">
          <mxGeometry relative="1" as="geometry" />
        </mxCell>
        <mxCell id="Z6Vx-sTiSSNgrHJ5ACyb-36" value="motorSpeed" style="text;strokeColor=default;fillColor=default;html=1;align=center;verticalAlign=middle;whiteSpace=wrap;rounded=0;" vertex="1" parent="1">
          <mxGeometry x="700" y="330" width="90" height="30" as="geometry" />
        </mxCell>
        <mxCell id="Z6Vx-sTiSSNgrHJ5ACyb-37" style="edgeStyle=orthogonalEdgeStyle;rounded=0;orthogonalLoop=1;jettySize=auto;html=1;entryX=1;entryY=0.5;entryDx=0;entryDy=0;endArrow=none;startSize=14;endSize=14;sourcePerimeterSpacing=0;targetPerimeterSpacing=0;endFill=0;" edge="1" parent="1" source="Z6Vx-sTiSSNgrHJ5ACyb-38" target="Z6Vx-sTiSSNgrHJ5ACyb-22">
          <mxGeometry relative="1" as="geometry" />
        </mxCell>
        <mxCell id="Z6Vx-sTiSSNgrHJ5ACyb-38" value="motorTorque" style="text;strokeColor=default;fillColor=default;html=1;align=center;verticalAlign=middle;whiteSpace=wrap;rounded=0;" vertex="1" parent="1">
          <mxGeometry x="700" y="370" width="90" height="30" as="geometry" />
        </mxCell>
        <mxCell id="Z6Vx-sTiSSNgrHJ5ACyb-39" style="edgeStyle=none;curved=1;rounded=0;orthogonalLoop=1;jettySize=auto;html=1;endArrow=none;startSize=14;endSize=14;sourcePerimeterSpacing=0;targetPerimeterSpacing=0;endFill=0;exitX=0.5;exitY=0;exitDx=0;exitDy=0;" edge="1" parent="1" source="Z6Vx-sTiSSNgrHJ5ACyb-1" target="Z6Vx-sTiSSNgrHJ5ACyb-40">
          <mxGeometry relative="1" as="geometry" />
        </mxCell>
        <mxCell id="Z6Vx-sTiSSNgrHJ5ACyb-40" value="vehicleAngle" style="text;strokeColor=default;fillColor=default;html=1;align=center;verticalAlign=middle;whiteSpace=wrap;rounded=0;" vertex="1" parent="1">
          <mxGeometry x="395" y="40" width="90" height="30" as="geometry" />
        </mxCell>
        <mxCell id="Z6Vx-sTiSSNgrHJ5ACyb-41" style="edgeStyle=orthogonalEdgeStyle;rounded=0;orthogonalLoop=1;jettySize=auto;html=1;endArrow=classic;startSize=6;endSize=6;sourcePerimeterSpacing=0;targetPerimeterSpacing=0;exitX=1;exitY=0.75;exitDx=0;exitDy=0;entryX=0;entryY=0.75;entryDx=0;entryDy=0;fillColor=#f8cecc;strokeColor=#b85450;" edge="1" parent="1" source="Z6Vx-sTiSSNgrHJ5ACyb-5" target="Z6Vx-sTiSSNgrHJ5ACyb-21">
          <mxGeometry relative="1" as="geometry">
            <Array as="points">
              <mxPoint x="450" y="480" />
              <mxPoint x="450" y="355" />
            </Array>
            <mxPoint x="525" y="560" as="sourcePoint" />
            <mxPoint x="610" y="535" as="targetPoint" />
          </mxGeometry>
        </mxCell>
      </root>
    </mxGraphModel>
  </diagram>
</mxfile>
